# Blender v3.2.1 OBJ File: ''
# www.blender.org
mtllib Circle.mtl
o Circle
v 2.079177 0.056086 0.000000
v 1.826448 0.404839 -0.000000
v 1.759846 0.716822 0.000000
v 1.796955 1.085460 0.000000
v 1.510300 1.332596 0.000000
v 1.075256 1.758581 0.000000
v 0.756485 2.043046 0.000000
v 0.387213 2.082576 0.000000
v -0.027811 2.123660 -0.000000
v -0.259027 1.893505 -0.000000
v -0.902036 1.818217 -0.000000
v -1.122450 1.545381 0.000000
v -1.338274 1.317769 -0.000000
v -1.739318 1.109414 0.000000
v -1.719407 0.689849 -0.000000
v -2.040237 0.261486 -0.000000
v -2.108789 -0.093607 -0.000000
v -2.003666 -0.358062 0.000000
v -1.781489 -0.721292 0.000000
v -1.755333 -1.098119 0.000000
v -1.295607 -1.386240 0.000000
v -1.059876 -1.785140 0.000000
v -0.830509 -1.962553 -0.000000
v -0.398921 -2.081742 0.000000
v -0.103020 -1.985149 0.000000
v 0.343875 -1.864368 -0.000000
v 0.768873 -1.741353 -0.000000
v 1.073453 -1.579246 0.000000
v 1.404291 -1.298804 -0.000000
v 1.614654 -1.155469 -0.000000
v 1.757640 -0.706990 -0.000000
v 1.863938 -0.421152 0.000000
vt 0.000000 0.000000
vt 0.000000 0.000000
vt 0.000000 0.000000
vt 0.000000 0.000000
vt 0.000000 0.000000
vt 0.000000 0.000000
vt 0.000000 0.000000
vt 0.000000 0.000000
vt 0.000000 0.000000
vt 0.000000 0.000000
vt 0.000000 0.000000
vt 0.000000 0.000000
vt 0.000000 0.000000
vt 0.000000 0.000000
vt 0.000000 0.000000
vt 0.000000 0.000000
vt 0.000000 0.000000
vt 0.000000 0.000000
vt 0.000000 0.000000
vt 0.000000 0.000000
vt 0.000000 0.000000
vt 0.000000 0.000000
vt 0.000000 0.000000
vt 0.000000 0.000000
vt 0.000000 0.000000
vt 0.000000 0.000000
vt 0.000000 0.000000
vt 0.000000 0.000000
vt 0.000000 0.000000
vt 0.000000 0.000000
vt 0.000000 0.000000
vt 0.000000 0.000000
vn -0.0000 0.0000 1.0000
usemtl None
s off
f 25/1/1 23/2/1 24/3/1
f 21/4/1 25/1/1 26/5/1
f 20/6/1 26/5/1 27/7/1
f 28/8/1 20/6/1 27/7/1
f 18/9/1 28/8/1 29/10/1
f 17/11/1 29/10/1 30/12/1
f 16/13/1 30/12/1 31/14/1
f 15/15/1 31/14/1 32/16/1
f 14/17/1 32/16/1 1/18/1
f 13/19/1 1/18/1 2/20/1
f 3/21/1 13/19/1 2/20/1
f 11/22/1 3/21/1 4/23/1
f 5/24/1 11/22/1 4/23/1
f 6/25/1 10/26/1 5/24/1
f 8/27/1 6/25/1 7/28/1
f 25/1/1 22/29/1 23/2/1
f 21/4/1 22/29/1 25/1/1
f 20/6/1 21/4/1 26/5/1
f 28/8/1 19/30/1 20/6/1
f 18/9/1 19/30/1 28/8/1
f 17/11/1 18/9/1 29/10/1
f 16/13/1 17/11/1 30/12/1
f 15/15/1 16/13/1 31/14/1
f 14/17/1 15/15/1 32/16/1
f 13/19/1 14/17/1 1/18/1
f 3/21/1 12/31/1 13/19/1
f 11/22/1 12/31/1 3/21/1
f 5/24/1 10/26/1 11/22/1
f 6/25/1 9/32/1 10/26/1
f 8/27/1 9/32/1 6/25/1
